{
    "data":
    {
    
            "total": 50,
            "per_page": 5,
            "current_page": 1,
            "last_page": 10,
            "first_page_url": "http://laravel.app?page=1",
            "last_page_url": "http://laravel.app?page=10",
            "next_page_url": "http://laravel.app?page=2",
            "prev_page_url": null,
            "path": "http://laravel.app",
            "from": 1,
            "to": 5,
            "data":
          
            [
                {
                    "id": 1,
                    "type": 1,
                    "clasification": "001",
                    "title": "Doloribus occaecati tenetur et at sint.",
                    "year": 2001,
                    "school_id": 2,
                    "stand_id": 1,
                    "adviser": "Sabrina Hamill",
                    "extension": 157,
                    "observations": "Perferendis reprehenderit accusamus voluptatibus saepe porro laudantium.",
                    "accompaniment": "Eum qui dolor quo vero ab vitae delectus.",
                    "content": "Modi iste molestiae assumenda odio molestiae eveniet pariatur.",
                    "summary": "Sint omnis atque quia id ut placeat.",
                    "recomendations": "Laborum non illum saepe.",
                    "conclusions": "Vel voluptatem at culpa sint.",
                    "bibliography": "Aliquid ea aliquam rem aut eum.",
                    "keywords": "Earum velit officia nihil.",
                    "mention": "titulo",
                    "authors": [
                        {
                            "author_id": 1,
                        },
                        {
                            "author_id": 2,
                        }
                    ], 
                    "created_at": "2020-06-26 17:47:16",
                    "updated_at": "2020-06-26 17:47:16"
                },
                {
                    "id": 2,
                    "type": 2,
                    "clasification": "002",
                    "title": "Eius perferendis necessitatibus necessitatibus est officia sed.",
                    "year": 2008,
                    "school_id": 3,
                    "stand_id": 2,
                    "adviser": "Rylee Marks",
                    "extension": 177,
                    "observations": "Vero sapiente et temporibus voluptatibus repudiandae magni.",
                    "accompaniment": "Laborum ab distinctio exercitationem corporis molestiae quo.",
                    "content": "Possimus ea numquam quia nihil.",
                    "summary": "Vel in labore enim consectetur ut eius.",
                    "recomendations": "Sit voluptas debitis quos qui eius non.",
                    "conclusions": "Est quod sint dolore quidem excepturi voluptatum numquam.",
                    "bibliography": "Et laudantium voluptatum est rerum laudantium tempora.",
                    "keywords": "Id doloribus voluptas magnam et aliquid et vel.",
                    "mention": "bachiller",
                    "authors": [
                        {
                            "author_id": 8,
                        },
                        {
                            "author_id": 3,
                        }
                    ], 
                    "created_at": "2020-06-26 17:47:16",
                    "updated_at": "2020-06-26 17:47:16"
                },
                {
                    "id": 3,
                    "type": 1,
                    "clasification": "003",
                    "title": "Qui reiciendis aut consequatur nihil.",
                    "year": 2003,
                    "school_id": 1,
                    "stand_id": 1,
                    "adviser": "Matteo Corkery",
                    "extension": 151,
                    "observations": "Impedit molestiae eum quod quidem eum.",
                    "accompaniment": "Voluptatem repudiandae accusamus delectus.",
                    "content": "Et labore adipisci autem similique quidem ut.",
                    "summary": "Excepturi maiores qui sed nemo.",
                    "recomendations": "Non eligendi quia illo nihil.",
                    "conclusions": "Ab voluptatem quo quod quas non quaerat.",
                    "bibliography": "Aliquam id et beatae libero.",
                    "keywords": "Dolores tempore ipsum ipsum libero voluptate vel.",
                    "mention": "doctorado",
                    "authors": [
                        {
                            "author_id": 6,
                        },
                        {
                            "author_id": 9,
                        }
                    ],
                    "created_at": "2020-06-26 17:47:16",
                    "updated_at": "2020-06-26 17:47:16"
                },
                {
                    "id": 4,
                    "type": 1,
                    "clasification": "004",
                    "title": "Est praesentium voluptatem non dolorem.",
                    "year": 2014,
                    "school_id": 4,
                    "stand_id": 3,
                    "adviser": "Kyra Marquardt III",
                    "extension": 121,
                    "observations": "Non corrupti enim laborum modi modi.",
                    "accompaniment": "Facilis id vitae quis consequatur provident.",
                    "content": "Ipsa incidunt tempore quisquam itaque.",
                    "summary": "Consequatur tenetur facere dolore cumque hic minus aut.",
                    "recomendations": "Libero iusto quisquam ratione veniam.",
                    "conclusions": "Tenetur explicabo voluptate architecto doloribus eius enim tenetur culpa.",
                    "bibliography": "Qui ratione nobis cum blanditiis autem.",
                    "keywords": "Odio ut quibusdam in aliquam delectus nemo veniam.",
                    "mention": "maestria",
                    "authors": [
                        {
                            "author_id": 5,
                        },
                        {
                            "author_id": 2,
                        }
                    ], 
                    "created_at": "2020-06-26 17:47:16",
                    "updated_at": "2020-06-26 17:47:16"
                },
                {
                    "id": 5,
                    "type": 2,
                    "clasification": "005",
                    "title": "Aut quia ut dicta voluptate.",
                    "year": 2010,
                    "school_id": 2,
                    "stand_id": 5,
                    "adviser": "Wilford Rolfson",
                    "extension": 140,
                    "observations": "Illum est sit rerum voluptatum.",
                    "accompaniment": "Quia occaecati voluptas placeat officiis nulla.",
                    "content": "Ut laudantium consequatur veritatis assumenda id.",
                    "summary": "Consequatur rem officia voluptatem libero ut.",
                    "recomendations": "Eligendi architecto quibusdam qui magnam tempore ratione optio necessitatibus.",
                    "conclusions": "Molestiae error distinctio fugit vel ut iste eum.",
                    "bibliography": "Voluptas omnis explicabo id suscipit.",
                    "keywords": "Doloribus esse est ad quae impedit quam at.",
                    "mention": "doctorado",
                    "authors": [
                        {
                            "author_id": 9,
                        }
                    ],
                    "created_at": "2020-06-26 17:47:16",
                    "updated_at": "2020-06-26 17:47:16"
                }
            ]
    },
    "code": 200,
    "type": "S002"
}
